{
    "prepare_queue": {
        "installed": [],
        "uninstalled": []
    },
    "config_munge": {
        "files": {
            "config.xml": {
                "parents": {
                    "/*": [
                        {
                            "xml": "<feature name=\"InAppBrowser\"><param name=\"ios-package\" value=\"CDVInAppBrowser\" /></feature>",
                            "count": 1
                        },
                        {
                            "xml": "<feature name=\"SplashScreen\"><param name=\"ios-package\" value=\"CDVSplashScreen\" /><param name=\"onload\" value=\"true\" /></feature>",
                            "count": 1
                        },
                        {
                            "xml": "<feature name=\"Globalization\"><param name=\"ios-package\" value=\"CDVGlobalization\" /></feature>",
                            "count": 1
                        },
                        {
                            "xml": "<feature name=\"Device\"><param name=\"ios-package\" value=\"CDVDevice\" /></feature>",
                            "count": 1
                        },
                        {
                            "xml": "<feature name=\"Badge\"><param name=\"ios-package\" value=\"APPBadge\" /></feature>",
                            "count": 1
                        },
                        {
                            "xml": "<feature name=\"LocalNotification\"><param name=\"ios-package\" value=\"APPLocalNotification\" /></feature>",
                            "count": 1
                        }
                    ]
                }
            }
        }
    },
    "installed_plugins": {
        "cordova-plugin-whitelist": {
            "PACKAGE_NAME": "fx.rics.app"
        },
        "cordova-plugin-inappbrowser": {
            "PACKAGE_NAME": "fx.rics.app"
        },
        "cordova-plugin-splashscreen": {
            "PACKAGE_NAME": "fx.rics.app"
        },
        "cordova-plugin-globalization": {
            "PACKAGE_NAME": "fx.rics.app"
        },
        "cordova-plugin-device": {
            "PACKAGE_NAME": "fx.rics.app"
        },
        "cordova-plugin-badge": {
            "PACKAGE_NAME": "fx.rics.app"
        },
        "cordova-plugin-local-notification": {
            "PACKAGE_NAME": "fx.rics.app"
        }
    },
    "dependent_plugins": {},
    "modules": [
        {
            "id": "cordova-plugin-inappbrowser.inappbrowser",
            "file": "plugins/cordova-plugin-inappbrowser/www/inappbrowser.js",
            "pluginId": "cordova-plugin-inappbrowser",
            "clobbers": [
                "cordova.InAppBrowser.open",
                "window.open"
            ]
        },
        {
            "id": "cordova-plugin-splashscreen.SplashScreen",
            "file": "plugins/cordova-plugin-splashscreen/www/splashscreen.js",
            "pluginId": "cordova-plugin-splashscreen",
            "clobbers": [
                "navigator.splashscreen"
            ]
        },
        {
            "id": "cordova-plugin-globalization.GlobalizationError",
            "file": "plugins/cordova-plugin-globalization/www/GlobalizationError.js",
            "pluginId": "cordova-plugin-globalization",
            "clobbers": [
                "window.GlobalizationError"
            ]
        },
        {
            "id": "cordova-plugin-globalization.globalization",
            "file": "plugins/cordova-plugin-globalization/www/globalization.js",
            "pluginId": "cordova-plugin-globalization",
            "clobbers": [
                "navigator.globalization"
            ]
        },
        {
            "id": "cordova-plugin-device.device",
            "file": "plugins/cordova-plugin-device/www/device.js",
            "pluginId": "cordova-plugin-device",
            "clobbers": [
                "device"
            ]
        },
        {
            "id": "cordova-plugin-badge.Badge",
            "file": "plugins/cordova-plugin-badge/www/badge.js",
            "pluginId": "cordova-plugin-badge",
            "clobbers": [
                "cordova.plugins.notification.badge"
            ]
        },
        {
            "id": "cordova-plugin-local-notification.LocalNotification",
            "file": "plugins/cordova-plugin-local-notification/www/local-notification.js",
            "pluginId": "cordova-plugin-local-notification",
            "clobbers": [
                "cordova.plugins.notification.local"
            ]
        },
        {
            "id": "cordova-plugin-local-notification.LocalNotification.Core",
            "file": "plugins/cordova-plugin-local-notification/www/local-notification-core.js",
            "pluginId": "cordova-plugin-local-notification",
            "clobbers": [
                "cordova.plugins.notification.local.core",
                "plugin.notification.local.core"
            ]
        },
        {
            "id": "cordova-plugin-local-notification.LocalNotification.Util",
            "file": "plugins/cordova-plugin-local-notification/www/local-notification-util.js",
            "pluginId": "cordova-plugin-local-notification",
            "merges": [
                "cordova.plugins.notification.local.core",
                "plugin.notification.local.core"
            ]
        }
    ],
    "plugin_metadata": {
        "cordova-plugin-whitelist": "1.3.3",
        "cordova-plugin-inappbrowser": "3.0.0",
        "cordova-plugin-splashscreen": "5.0.2",
        "cordova-plugin-globalization": "1.11.0",
        "cordova-plugin-device": "2.0.2",
        "cordova-plugin-badge": "0.8.7",
        "cordova-plugin-local-notification": "0.9.0-beta.2"
    }
}